<?xml version="1.0" encoding="utf-8"?>
<!-- Generator: Adobe Illustrator 21.0.0, SVG Export Plug-In . SVG Version: 6.00 Build 0)  -->
<svg version="1.1" id="Layer_1" xmlns="http://www.w3.org/2000/svg" xmlns:xlink="http://www.w3.org/1999/xlink" x="0px" y="0px"
	 viewBox="0 0 202 104.3" style="enable-background:new 0 0 202 104.3;" xml:space="preserve">
<style type="text/css">
	.st0{fill:#B7B7B6;}
	.st1{fill:#FFFFFF;stroke:#822877;stroke-width:2;stroke-miterlimit:10;}
	.st2{fill:#822877;}
</style>
<g>
	<path class="st0" d="M31.8,31.2h-2.9v4.6h-1.4v-13H32c2.7,0,4.5,1.6,4.5,4.1C36.5,29.8,34.3,31.2,31.8,31.2z M31.9,24.1h-3.1v5.7h3
		c2,0,3.3-1.2,3.3-2.9C35.1,25.1,33.8,24.1,31.9,24.1z"/>
	<path class="st0" d="M39,22.8h1.4v11.7h6.8v1.4H39V22.8z"/>
	<path class="st0" d="M61,35.8h-1.5l-1.4-3.4h-6.6l-1.4,3.4h-1.4l5.5-13.1h1.3L61,35.8z M54.8,24.4L52,31h5.5L54.8,24.4z"/>
	<path class="st0" d="M72.2,22.8h1.3v13h-1.1l-7.8-10.7v10.7h-1.3v-13h1.3l7.6,10.4V22.8z"/>
	<path class="st0" d="M82.6,36c-3.7,0-6.1-3.1-6.1-6.7c0-3.6,2.5-6.7,6.2-6.7c3.7,0,6.1,3.1,6.1,6.7S86.3,36,82.6,36z M82.6,23.9
		c-2.8,0-4.7,2.4-4.7,5.4s2,5.4,4.8,5.4c2.8,0,4.7-2.4,4.7-5.4C87.4,26.3,85.4,23.9,82.6,23.9z"/>
</g>
<g>
	<path class="st1" d="M174.2,45.9l0.1,14.1l13.6-0.1l0,3.6l-13.6,0.1l0.1,14.2l-3.8,0l-0.1-14.2L157,63.7l0-3.6l13.6-0.1l-0.1-14.1
		L174.2,45.9z"/>
</g>
<g>
	<path class="st2" d="M35.3,58.2h11.8v7.9H35.3v17.7h-7.9V40.1h23.7V48H35.3V58.2z M35.3,48v10.2V48z"/>
	<path class="st2" d="M75.8,73.8H62.9l-3.9,9.9h-7.3l14.4-36.2l3-7.5l3.1,7.4l15.1,36.3h-7.3L75.8,73.8z M65.9,66.4h6.8L69.2,58
		L65.9,66.4z M69.2,58l-3.3,8.4L69.2,58z"/>
	<path class="st2" d="M102.4,40.1v35.5H118v8h-15.6v0.1h-7.9V40.1H102.4z M102.4,40.1h-7.9H102.4z"/>
	<path class="st2" d="M134.2,58.2H146v7.9h-11.8v9.7H150v8h-23.7V40.1H150V48h-15.8V58.2z M129.2,48v10.2V48z"/>
</g>
</svg>
